module gitlab.com/rdubwiley/gobaseball

go 1.22.2

require (
	github.com/charmbracelet/bubbles v0.18.0
	github.com/charmbracelet/bubbletea v0.25.0
	github.com/charmbracelet/lipgloss v0.9.1
	github.com/go-gota/gota v0.12.0
	github.com/spf13/cobra v1.8.0
)

require (
	github.com/alecthomas/chroma v0.10.0 // indirect
	github.com/anmitsu/go-shlex v0.0.0-20200514113438-38f4b401e2be // indirect
	github.com/atotto/clipboard v0.1.4 // indirect
	github.com/aymanbagabas/git-module v1.8.4-0.20231101154130-8d27204ac6d2 // indirect
	github.com/aymanbagabas/go-osc52/v2 v2.0.1 // indirect
	github.com/aymerick/douceur v0.2.0 // indirect
	github.com/beorn7/perks v1.0.1 // indirect
	github.com/caarlos0/duration v0.0.0-20220103233809-8df7c22fe305 // indirect
	github.com/caarlos0/env/v10 v10.0.0 // indirect
	github.com/caarlos0/tablewriter v0.1.0 // indirect
	github.com/cespare/xxhash/v2 v2.2.0 // indirect
	github.com/charmbracelet/git-lfs-transfer v0.1.1-0.20231027181609-f7ff6baf2ed0 // indirect
	github.com/charmbracelet/glamour v0.6.0 // indirect
	github.com/charmbracelet/keygen v0.5.0 // indirect
	github.com/charmbracelet/log v0.3.1 // indirect
	github.com/charmbracelet/soft-serve v0.7.4 // indirect
	github.com/charmbracelet/ssh v0.0.0-20230822194956-1a051f898e09 // indirect
	github.com/charmbracelet/wish v1.2.0 // indirect
	github.com/containerd/console v1.0.4-0.20230313162750-1ae8d489ac81 // indirect
	github.com/dlclark/regexp2 v1.4.0 // indirect
	github.com/dustin/go-humanize v1.0.1 // indirect
	github.com/felixge/httpsnoop v1.0.3 // indirect
	github.com/git-lfs/pktline v0.0.0-20230103162542-ca444d533ef1 // indirect
	github.com/go-git/gcfg v1.5.1-0.20230307220236-3a3c6141e376 // indirect
	github.com/go-git/go-git/v5 v5.10.1 // indirect
	github.com/go-jose/go-jose/v3 v3.0.1 // indirect
	github.com/go-logfmt/logfmt v0.6.0 // indirect
	github.com/gobwas/glob v0.2.3 // indirect
	github.com/golang-jwt/jwt/v5 v5.1.0 // indirect
	github.com/golang/protobuf v1.5.3 // indirect
	github.com/google/go-querystring v1.1.0 // indirect
	github.com/google/uuid v1.4.0 // indirect
	github.com/gorilla/css v1.0.0 // indirect
	github.com/gorilla/handlers v1.5.2 // indirect
	github.com/gorilla/mux v1.8.1 // indirect
	github.com/hashicorp/golang-lru/v2 v2.0.7 // indirect
	github.com/inconshreveable/mousetrap v1.1.0 // indirect
	github.com/jmoiron/sqlx v1.3.5 // indirect
	github.com/kballard/go-shellquote v0.0.0-20180428030007-95032a82bc51 // indirect
	github.com/lib/pq v1.10.9 // indirect
	github.com/lrstanley/bubblezone v0.0.0-20220716194435-3cb8c52f6a8f // indirect
	github.com/lucasb-eyer/go-colorful v1.2.0 // indirect
	github.com/mattn/go-isatty v0.0.18 // indirect
	github.com/mattn/go-localereader v0.0.1 // indirect
	github.com/mattn/go-runewidth v0.0.15 // indirect
	github.com/matttproud/golang_protobuf_extensions v1.0.4 // indirect
	github.com/mcuadros/go-version v0.0.0-20190308113854-92cdf37c5b75 // indirect
	github.com/microcosm-cc/bluemonday v1.0.21 // indirect
	github.com/muesli/ansi v0.0.0-20211031195517-c9f0611b6c70 // indirect
	github.com/muesli/cancelreader v0.2.2 // indirect
	github.com/muesli/mango v0.1.0 // indirect
	github.com/muesli/mango-cobra v1.2.0 // indirect
	github.com/muesli/mango-pflag v0.1.0 // indirect
	github.com/muesli/reflow v0.3.0 // indirect
	github.com/muesli/roff v0.1.0 // indirect
	github.com/muesli/termenv v0.15.2 // indirect
	github.com/olekukonko/tablewriter v0.0.5 // indirect
	github.com/prometheus/client_golang v1.17.0 // indirect
	github.com/prometheus/client_model v0.4.1-0.20230718164431-9a2bf3000d16 // indirect
	github.com/prometheus/common v0.44.0 // indirect
	github.com/prometheus/procfs v0.11.1 // indirect
	github.com/remyoudompheng/bigfft v0.0.0-20230129092748-24d4a6f8daec // indirect
	github.com/rivo/uniseg v0.4.6 // indirect
	github.com/robfig/cron/v3 v3.0.1 // indirect
	github.com/rubyist/tracerx v0.0.0-20170927163412-787959303086 // indirect
	github.com/sahilm/fuzzy v0.1.1-0.20230530133925-c48e322e2a8f // indirect
	github.com/sergi/go-diff v1.1.0 // indirect
	github.com/spf13/pflag v1.0.5 // indirect
	github.com/yuin/goldmark v1.5.2 // indirect
	github.com/yuin/goldmark-emoji v1.0.1 // indirect
	go.uber.org/automaxprocs v1.5.3 // indirect
	golang.org/x/crypto v0.16.0 // indirect
	golang.org/x/exp v0.0.0-20231006140011-7918f672742d // indirect
	golang.org/x/mod v0.13.0 // indirect
	golang.org/x/net v0.18.0 // indirect
	golang.org/x/sync v0.5.0 // indirect
	golang.org/x/sys v0.15.0 // indirect
	golang.org/x/term v0.15.0 // indirect
	golang.org/x/text v0.14.0 // indirect
	golang.org/x/tools v0.14.0 // indirect
	gonum.org/v1/gonum v0.9.1 // indirect
	google.golang.org/protobuf v1.31.0 // indirect
	gopkg.in/warnings.v0 v0.1.2 // indirect
	gopkg.in/yaml.v3 v3.0.1 // indirect
	lukechampine.com/uint128 v1.2.0 // indirect
	modernc.org/cc/v3 v3.40.0 // indirect
	modernc.org/ccgo/v3 v3.16.13 // indirect
	modernc.org/libc v1.29.0 // indirect
	modernc.org/mathutil v1.6.0 // indirect
	modernc.org/memory v1.7.2 // indirect
	modernc.org/opt v0.1.3 // indirect
	modernc.org/sqlite v1.27.0 // indirect
	modernc.org/strutil v1.1.3 // indirect
	modernc.org/token v1.0.1 // indirect
)
